3 Descriptives (Wide) | Data Atlas
…
df_summary <- df_summary  %>% 
    pivot_wider(
        names_from = statistic,
        values_from = value,
        values_fn = list(value = mean)  # Aggregate if necessary
    )

df_summary  %>% mutate(variable = factor(variable, levels = variable_order)) %>%
    arrange(variable, cohort)

## # A tibble: 26 × 6
##    cohort  variable    mean      sd median   IQR
##    <chr>   <fct>      <dbl>   <dbl>  <dbl> <dbl>
##  1 older   fam      2859    548.      2859   949
##  2 younger fam       955    551.       955   954
##  3 older   age        45.4   12.2       42    19
##  4 younger age        23.5    3.66      23     7
##  5 older   part        1.95   0.224      2     0
##  6 younger part        1.92   0.299      2     0
##  7 older   wt1        63.8   11.2       62    15
##  8 younger wt1        60.5   10.3       59    14
##  9 older   wt2        67.0   12.7       66    19
## 10 younger wt2        64.1   11.6       64    17
## # ℹ 16 more rows
…
# lock in the variable order
variable_order <- unique(df_summary$variable)

df_summary <- df_summary  %>% 
    pivot_wider(
        names_from = statistic,
        values_from = value,
        values_fn = list(value = mean)  # Aggregate if necessary
    )

df_summary  %>% mutate(variable = factor(variable, levels = variable_order)) %>%
    arrange(variable,zyg,sex)

## # A tibble: 65 × 7
## # Groups:   zyg [2]
##    zyg   sex   variable   mean     sd median   IQR
##    <chr> <chr> <fct>     <dbl>  <dbl>  <dbl> <dbl>
##  1 DZ    F     fam      2109.  1029.   2891  2048 
##  2 DZ    M     fam      2144.  1009.   1370. 2042.
##  3 DZ    OS    fam      2509.   980.   1852. 1956.
##  4 MZ    F     fam      1338.   992.   1956. 1956.
##  5 MZ    M     fam      1750.  1010.   2583  2013 
##  6 DZ    F     age        35.4   14.3    32    20 
##  7 DZ    M     age        32.3   13.9    28    16 
##  8 DZ    OS    age        32.9   13.9    28    17 
##  9 MZ    F     age        35.7   14.3    32    21 
## 10 MZ    M     age        34.4   14.1    31    18 
## # ℹ 55 more rows
…
